\relax 
\providecommand\hyper@newdestlabel[2]{}
\providecommand\HyperFirstAtBeginDocument{\AtBeginDocument}
\HyperFirstAtBeginDocument{\ifx\hyper@anchor\@undefined
\global\let\oldcontentsline\contentsline
\gdef\contentsline#1#2#3#4{\oldcontentsline{#1}{#2}{#3}}
\global\let\oldnewlabel\newlabel
\gdef\newlabel#1#2{\newlabelxx{#1}#2}
\gdef\newlabelxx#1#2#3#4#5#6{\oldnewlabel{#1}{{#2}{#3}}}
\AtEndDocument{\ifx\hyper@anchor\@undefined
\let\contentsline\oldcontentsline
\let\newlabel\oldnewlabel
\fi}
\fi}
\global\let\hyper@last\relax 
\gdef\HyperFirstAtBeginDocument#1{#1}
\providecommand\HyField@AuxAddToFields[1]{}
\providecommand\HyField@AuxAddToCoFields[2]{}
\citation{MRH}
\@writefile{toc}{\contentsline {section}{Abstract}{1}{section*.1}}
\@writefile{toc}{\contentsline {section}{\numberline {1}Introduction}{1}{section.1}}
\@writefile{toc}{\contentsline {section}{\numberline {2}Related Work}{1}{section.2}}
\@writefile{toc}{\contentsline {section}{\numberline {3}Proposed Method}{1}{section.3}}
\@writefile{toc}{\contentsline {subsection}{\numberline {3.1}graphical representation}{1}{subsection.3.1}}
\citation{rwr}
\@writefile{toc}{\contentsline {subsection}{\numberline {3.2}Explorative Recommendation with transition probabilities}{2}{subsection.3.2}}
\@writefile{loa}{\contentsline {algorithm}{\numberline {1}{\ignorespaces DFS-Rec\relax }}{2}{algorithm.1}}
\providecommand*\caption@xref[2]{\@setref\relax\@undefined{#1}}
\newlabel{alg1}{{1}{2}{DFS-Rec\relax }{algorithm.1}{}}
\@writefile{toc}{\contentsline {subsection}{\numberline {3.3}Explanation by transition path}{2}{subsection.3.3}}
\newlabel{tocindent-1}{0pt}
\newlabel{tocindent0}{0pt}
\newlabel{tocindent1}{4.185pt}
\newlabel{tocindent2}{10.34999pt}
\newlabel{tocindent3}{0pt}
\@writefile{toc}{\contentsline {section}{\numberline {4}Experiment}{3}{section.4}}
\@writefile{toc}{\contentsline {subsection}{\numberline {4.1}Datasets}{3}{subsection.4.1}}
\@writefile{toc}{\contentsline {subsection}{\numberline {4.2}graph}{3}{subsection.4.2}}
\@writefile{toc}{\contentsline {subsection}{\numberline {4.3}setup}{3}{subsection.4.3}}
\@writefile{toc}{\contentsline {subsection}{\numberline {4.4}Evalution metrics}{3}{subsection.4.4}}
\@writefile{toc}{\contentsline {subsection}{\numberline {4.5}Ranking Performance}{3}{subsection.4.5}}
\@writefile{toc}{\contentsline {subsection}{\numberline {4.6}Explainable}{3}{subsection.4.6}}
\@writefile{toc}{\contentsline {section}{\numberline {5}Conclusion}{3}{section.5}}
\newlabel{TotPages}{{3}{3}{}{page.3}{}}
